{
	"name": "migration",
	"paths": [
		"hooks",
		"webpack.config.js",
		"package.json",
		"package-lock.json",
		"package.json",
		"src\\main.js",
		"hooks",
		"webpack.config.js",
		"package.json",
		"package-lock.json",
		"package.json",
		"src\\main.js"
	]
}